{
  "pageData": [
    {
      "metadata": {
        "page": 0,
        "per_page": 10,
        "total": 30,
        "total_pages": 3
      },
      "data": [
        {
          "id": "glty49efnDfQZkQXBoGQ5x4Xarw1Zz3FXNDQ8y6qZQo=",
          "name": "sciencedaily.com",
          "sm_id": "one",
          "company_id": 1
        },
        {
          "id": "glty49efnDfQZkQXBoGQ5x4Xarw1Zz3FXNDQ8y6qZQo=",
          "name": "npr.org",
          "sm_id": "one",
          "company_id": 2
        },
        {
          "id": "glty49efnDfQZkQXBoGQ5x4Xarw1Zz3FXNDQ8y6qZQo=",
          "name": "naver.com",
          "sm_id": "one",
          "company_id": 3
        },
        {
          "id": "2+gRtcb5tg4K0Ofh5ivnkMeCUA1VtHM3qFtddVqwdZk=",
          "name": "chicagotribune.com",
          "sm_id": "one",
          "company_id": 4
        },
        {
          "id": "2+gRtcb5tg4K0Ofh5ivnkMeCUA1VtHM3qFtddVqwdZk=",
          "name": "51.la",
          "sm_id": "one",
          "company_id": 5
        },
        {
          "id": "RjQ9HGpc/WzGuQkCm9C9JAoimFZMCZWsm7jOh/PJQq8=",
          "name": "ted.com",
          "sm_id": "one",
          "company_id": 6
        },
        {
          "id": "2+gRtcb5tg4K0Ofh5ivnkMeCUA1VtHM3qFtddVqwdZk=",
          "name": "jalbum.net",
          "sm_id": "one",
          "company_id": 7
        },
        {
          "id": "glty49efnDfQZkQXBoGQ5x4Xarw1Zz3FXNDQ8y6qZQo=",
          "name": "yahoo.co.jp",
          "sm_id": "one",
          "company_id": 8
        },
        {
          "id": "2+gRtcb5tg4K0Ofh5ivnkMeCUA1VtHM3qFtddVqwdZk=",
          "name": "odnoklassniki.ru",
          "sm_id": "one",
          "company_id": 9
        },
        {
          "id": "RjQ9HGpc/WzGuQkCm9C9JAoimFZMCZWsm7jOh/PJQq8=",
          "name": "ucsd.edu",
          "sm_id": "one",
          "company_id": 10
        }
      ]
    },
    {
      "metadata": {
        "page": 1,
        "per_page": 10,
        "total": 30,
        "total_pages": 3
      },
      "data": [
        {
          "id": "glty49efnDfQZkQXBoGQ5x4Xarw1Zz3FXNDQ8y6qZQo=",
          "name": "51.la",
          "sm_id": "one",
          "company_id": 1
        },
        {
          "id": "glty49efnDfQZkQXBoGQ5x4Xarw1Zz3FXNDQ8y6qZQo=",
          "name": "businessinsider.com",
          "sm_id": "one",
          "company_id": 2
        },
        {
          "id": "RjQ9HGpc/WzGuQkCm9C9JAoimFZMCZWsm7jOh/PJQq8=",
          "name": "163.com",
          "sm_id": "one",
          "company_id": 3
        },
        {
          "id": "RjQ9HGpc/WzGuQkCm9C9JAoimFZMCZWsm7jOh/PJQq8=",
          "name": "toplist.cz",
          "sm_id": "one",
          "company_id": 4
        },
        {
          "id": "RjQ9HGpc/WzGuQkCm9C9JAoimFZMCZWsm7jOh/PJQq8=",
          "name": "last.fm",
          "sm_id": "one",
          "company_id": 5
        },
        {
          "id": "RjQ9HGpc/WzGuQkCm9C9JAoimFZMCZWsm7jOh/PJQq8=",
          "name": "weebly.com",
          "sm_id": "one",
          "company_id": 6
        },
        {
          "id": "2+gRtcb5tg4K0Ofh5ivnkMeCUA1VtHM3qFtddVqwdZk=",
          "name": "sciencedaily.com",
          "sm_id": "one",
          "company_id": 7
        },
        {
          "id": "RjQ9HGpc/WzGuQkCm9C9JAoimFZMCZWsm7jOh/PJQq8=",
          "name": "latimes.com",
          "sm_id": "one",
          "company_id": 8
        },
        {
          "id": "RjQ9HGpc/WzGuQkCm9C9JAoimFZMCZWsm7jOh/PJQq8=",
          "name": "arstechnica.com",
          "sm_id": "one",
          "company_id": 9
        },
        {
          "id": "2+gRtcb5tg4K0Ofh5ivnkMeCUA1VtHM3qFtddVqwdZk=",
          "name": "google.nl",
          "sm_id": "one",
          "company_id": 10
        }
      ]
    },
    {
      "metadata": {
        "page": 2,
        "per_page": 10,
        "total": 30,
        "total_pages": 3
      },
      "data": [
        {
          "id": "glty49efnDfQZkQXBoGQ5x4Xarw1Zz3FXNDQ8y6qZQo=",
          "name": "dmoz.org",
          "sm_id": "three",
          "company_id": 1
        },
        {
          "id": "2+gRtcb5tg4K0Ofh5ivnkMeCUA1VtHM3qFtddVqwdZk=",
          "name": "github.io",
          "sm_id": "three",
          "company_id": 2
        },
        {
          "id": "glty49efnDfQZkQXBoGQ5x4Xarw1Zz3FXNDQ8y6qZQo=",
          "name": "mediafire.com",
          "sm_id": "three",
          "company_id": 3
        },
        {
          "id": "RjQ9HGpc/WzGuQkCm9C9JAoimFZMCZWsm7jOh/PJQq8=",
          "name": "state.tx.us",
          "sm_id": "three",
          "company_id": 4
        },
        {
          "id": "2+gRtcb5tg4K0Ofh5ivnkMeCUA1VtHM3qFtddVqwdZk=",
          "name": "netlog.com",
          "sm_id": "three",
          "company_id": 5
        },
        {
          "id": "glty49efnDfQZkQXBoGQ5x4Xarw1Zz3FXNDQ8y6qZQo=",
          "name": "last.fm",
          "sm_id": "three",
          "company_id": 6
        },
        {
          "id": "glty49efnDfQZkQXBoGQ5x4Xarw1Zz3FXNDQ8y6qZQo=",
          "name": "rediff.com",
          "sm_id": "three",
          "company_id": 7
        },
        {
          "id": "glty49efnDfQZkQXBoGQ5x4Xarw1Zz3FXNDQ8y6qZQo=",
          "name": "google.com.hk",
          "sm_id": "three",
          "company_id": 8
        },
        {
          "id": "2+gRtcb5tg4K0Ofh5ivnkMeCUA1VtHM3qFtddVqwdZk=",
          "name": "army.mil",
          "sm_id": "three",
          "company_id": 9
        },
        {
          "id": "glty49efnDfQZkQXBoGQ5x4Xarw1Zz3FXNDQ8y6qZQo=",
          "name": "nydailynews.com",
          "sm_id": "three",
          "company_id": 10
        }
      ]
    }
  ]
}
